## Interface: 80300
## Title: Priority Todo list
## Author: Constant DESCHIETERE
## Notes: An automated todo list for beginner or people handling multiple alts
## SavedVariablesPerCharacter: ELEMENTS_SAVE

PTL.xml